<?xml version="1.0" encoding="UTF-8" standalone="no"?>
<!-- Created with Inkscape (http://www.inkscape.org/) -->

<svg
   width="1000"
   height="1000"
   id="svg2"
   version="1.1"
   inkscape:version="1.1 (ce6663b3b7, 2021-05-25)"
   sodipodi:docname="genre_homme.svg"
   xmlns:inkscape="http://www.inkscape.org/namespaces/inkscape"
   xmlns:sodipodi="http://sodipodi.sourceforge.net/DTD/sodipodi-0.dtd"
   xmlns="http://www.w3.org/2000/svg"
   xmlns:svg="http://www.w3.org/2000/svg"
   xmlns:rdf="http://www.w3.org/1999/02/22-rdf-syntax-ns#"
   xmlns:cc="http://creativecommons.org/ns#"
   xmlns:dc="http://purl.org/dc/elements/1.1/">
  <defs
     id="defs4" />
  <sodipodi:namedview
     id="base"
     pagecolor="#ffffff"
     bordercolor="#666666"
     borderopacity="1.0"
     inkscape:pageopacity="0.0"
     inkscape:pageshadow="2"
     inkscape:zoom="0.3272166"
     inkscape:cx="1225.4879"
     inkscape:cy="1106.3008"
     inkscape:document-units="px"
     inkscape:current-layer="layer1"
     showgrid="true"
     inkscape:snap-bbox="true"
     inkscape:snap-nodes="true"
     fit-margin-top="0"
     fit-margin-left="0"
     fit-margin-right="0"
     fit-margin-bottom="0"
     inkscape:window-width="2560"
     inkscape:window-height="1412"
     inkscape:window-x="0"
     inkscape:window-y="0"
     inkscape:window-maximized="1"
     inkscape:pagecheckerboard="0"
     height="1610px"
     inkscape:bbox-paths="true"
     inkscape:bbox-nodes="true"
     inkscape:snap-bbox-edge-midpoints="true"
     inkscape:snap-bbox-midpoints="true"
     inkscape:object-paths="true"
     inkscape:snap-intersection-paths="true"
     inkscape:snap-smooth-nodes="true"
     inkscape:snap-midpoints="true"
     inkscape:snap-object-midpoints="true"
     inkscape:snap-center="true"
     inkscape:snap-text-baseline="true"
     inkscape:snap-page="true"
     width="1000px"
     showguides="true"
     inkscape:guide-bbox="true">
    <inkscape:grid
       type="xygrid"
       id="grid3031"
       empspacing="5"
       visible="true"
       enabled="true"
       snapvisiblegridlinesonly="true"
       originx="0"
       originy="0"
       spacingx="5"
       spacingy="5" />
    <sodipodi:guide
       position="500,500"
       orientation="0,-1"
       id="guide6090" />
    <sodipodi:guide
       position="500,950"
       orientation="1,0"
       id="guide6092" />
  </sodipodi:namedview>
  <metadata
     id="metadata7">
    <rdf:RDF>
      <cc:Work
         rdf:about="">
        <dc:format>image/svg+xml</dc:format>
        <dc:type
           rdf:resource="http://purl.org/dc/dcmitype/StillImage" />
      </cc:Work>
    </rdf:RDF>
  </metadata>
  <g
     inkscape:label="Layer 1"
     inkscape:groupmode="layer"
     id="layer1"
     transform="translate(240,317.56764)">
    <path
       id="path2804"
       style="color:#000000;fill:#3377ff;-inkscape-stroke:none;fill-opacity:1"
       d="m 676.77734,144.30273 a 37.5,37.5 0 0 0 -37.5,37.5 37.5,37.5 0 0 0 37.5,37.5 h 50.88868 l -70.61914,70.61719 C 613.1956,257.02669 558.79712,237.5 500,237.5 355.46957,237.5 237.5,355.46957 237.5,500 c 0,144.53043 117.96957,262.5 262.5,262.5 144.53043,0 262.5,-117.96957 262.5,-262.5 0,-58.79711 -19.5267,-113.1956 -52.41992,-157.04688 l 70.61719,-70.61718 v 50.88867 a 37.5,37.5 0 0 0 37.5,37.5 37.5,37.5 0 0 0 37.5,-37.5 V 181.80273 a 37.50375,37.50375 0 0 0 -0.0137,-0.10937 37.50375,37.50375 0 0 0 -1.13281,-8.58203 37.50375,37.50375 0 0 0 -0.39453,-1.64453 37.50375,37.50375 0 0 0 -3.23047,-7.79297 37.50375,37.50375 0 0 0 -0.86133,-1.40821 37.50375,37.50375 0 0 0 -5.35156,-6.9707 37.50375,37.50375 0 0 0 -0.002,-0.004 37.50375,37.50375 0 0 0 -0.002,-0.002 37.50375,37.50375 0 0 0 -6.99804,-5.36914 37.50375,37.50375 0 0 0 -1.36133,-0.83594 37.50375,37.50375 0 0 0 -7.86523,-3.25781 37.50375,37.50375 0 0 0 -1.51563,-0.36328 37.50375,37.50375 0 0 0 -8.77148,-1.16016 z M 500,312.5 c 51.44749,0 97.85846,20.45658 131.64648,53.69922 a 37.5,37.5 0 0 0 0.93555,1.21875 37.5,37.5 0 0 0 1.2207,0.9375 C 667.04413,402.14332 687.5,448.55359 687.5,500 687.5,603.99746 603.99746,687.5 500,687.5 396.00254,687.5 312.5,603.99746 312.5,500 312.5,396.00254 396.00254,312.5 500,312.5 Z"
       transform="translate(-240,-317.56764)" />
  </g>
</svg>
